{
    "$help": "https://aka.ms/terminal-documentation",
    "$schema": "https://aka.ms/terminal-profiles-schema",
    "actions": 
    [
        {
            "command": "unbound",
            "keys": "ctrl+c"
        },
        {
            "command": "unbound",
            "keys": "ctrl+v"
        },
        {
            "command": "unbound",
            "keys": "alt+down"
        },
        {
            "command": "unbound",
            "keys": "alt+left"
        },
        {
            "command": "unbound",
            "keys": "alt+right"
        },
        {
            "command": "unbound",
            "keys": "alt+up"
        },
        {
            "command": "find",
            "id": "User.find",
            "keys": "ctrl+shift+f"
        },
        {
            "command": "duplicateTab",
            "id": "User.duplicateTab",
            "keys": "ctrl+shift+t"
        }
    ],
    "copyFormatting": "none",
    "copyOnSelect": true,
    "defaultProfile": "{574e775e-4f2a-5b96-ac1e-a2962a402336}",
    "disabledProfileSources": 
    [
        "Windows.Terminal.Azure",
        "Windows.Terminal.SSH",
        "Windows.Terminal.VisualStudio",
        "Windows.Terminal.Wsl"
    ],
    "launchMode": "maximized",
    "newTabMenu": 
    [
        {
            "type": "remainingProfiles"
        }
    ],
    "profiles": 
    {
        "defaults": 
        {
            "cursorShape": "filledBox"
        },
        "list": 
        [
            {
                "backgroundImage": "D:\\local\\Pictures\\wallpaper\\Narzisse_1920_flop.jpg",
                "backgroundImageOpacity": 0.2,
                "bellStyle": "none",
                "colorScheme": "Linux Colors (yan12125's fork)",
                "font": 
                {
                    "face": "Consolas"
                },
                "guid": "{574e775e-4f2a-5b96-ac1e-a2962a402336}",
                "hidden": false,
                "name": "PowerShell",
                "source": "Windows.Terminal.PowershellCore"
            },
            {
                "guid": "{61c54bbd-c2c6-5271-96e7-009a87ff44bf}",
                "hidden": true,
                "name": "Windows PowerShell"
            },
            {
                "guid": "{0caa0dad-35be-5f56-a8ff-afceeeaa6101}",
                "hidden": true,
                "name": "\u547d\u4ee4\u63d0\u793a\u5b57\u5143"
            }
        ]
    },
    "schemes": 
    [
        {
            "background": "#000000",
            "black": "#000000",
            "blue": "#3465A4",
            "brightBlack": "#686868",
            "brightBlue": "#739FCF",
            "brightCyan": "#54FFFF",
            "brightGreen": "#8AE234",
            "brightPurple": "#FF54FF",
            "brightRed": "#CB4B16",
            "brightWhite": "#FFFFFF",
            "brightYellow": "#FFFF54",
            "cursorColor": "#FFFFFF",
            "cyan": "#18B2B2",
            "foreground": "#B2B2B2",
            "green": "#47C047",
            "name": "Linux Colors (yan12125's fork)",
            "purple": "#B218B2",
            "red": "#DC322F",
            "selectionBackground": "#FFFFFF",
            "white": "#B2B2B2",
            "yellow": "#B26818"
        }
    ],
    "theme": "light",
    "themes": [],
    "wordDelimiters": " "
}